feature,mean_importance
SC.3,-0.010639139997306457
nAcid,0.0
PubchemFP440,0.0
PubchemFP442,0.0
PubchemFP443,0.0
PubchemFP445,0.0
PubchemFP446,0.0
PubchemFP447,0.0
PubchemFP448,0.0
PubchemFP449,0.0
PubchemFP450,0.0
PubchemFP451,0.0
PubchemFP452,0.0
PubchemFP453,0.0
PubchemFP454,0.0
PubchemFP455,0.0
PubchemFP457,0.0
PubchemFP459,0.0
PubchemFP461,0.0
PubchemFP462,0.0
PubchemFP464,0.0
PubchemFP465,0.0
PubchemFP466,0.0
PubchemFP467,0.0
PubchemFP468,0.0
PubchemFP470,0.0
PubchemFP471,0.0
PubchemFP472,0.0
PubchemFP439,0.0
PubchemFP473,0.0
PubchemFP438,0.0
PubchemFP436,0.0
PubchemFP397,0.0
PubchemFP398,0.0
PubchemFP399,0.0
PubchemFP400,0.0
PubchemFP401,0.0
PubchemFP403,0.0
PubchemFP404,0.0
PubchemFP405,0.0
PubchemFP406,0.0
PubchemFP409,0.0
PubchemFP412,0.0
PubchemFP414,0.0
PubchemFP417,0.0
PubchemFP418,0.0
PubchemFP419,0.0
PubchemFP420,0.0
PubchemFP421,0.0
PubchemFP422,0.0
PubchemFP423,0.0
PubchemFP427,0.0
PubchemFP428,0.0
PubchemFP429,0.0
PubchemFP430,0.0
PubchemFP431,0.0
PubchemFP432,0.0
PubchemFP434,0.0
PubchemFP435,0.0
PubchemFP437,0.0
PubchemFP474,0.0
PubchemFP475,0.0
PubchemFP476,0.0
PubchemFP513,0.0
PubchemFP514,0.0
PubchemFP515,0.0
PubchemFP516,0.0
PubchemFP517,0.0
PubchemFP518,0.0
PubchemFP519,0.0
PubchemFP520,0.0
PubchemFP521,0.0
PubchemFP522,0.0
PubchemFP523,0.0
PubchemFP524,0.0
PubchemFP527,0.0
PubchemFP528,0.0
PubchemFP530,0.0
PubchemFP531,0.0
PubchemFP532,0.0
PubchemFP533,0.0
PubchemFP534,0.0
PubchemFP535,0.0
PubchemFP536,0.0
PubchemFP537,0.0
PubchemFP538,0.0
PubchemFP539,0.0
PubchemFP540,0.0
PubchemFP541,0.0
PubchemFP542,0.0
PubchemFP511,0.0
PubchemFP510,0.0
PubchemFP509,0.0
PubchemFP508,0.0
PubchemFP477,0.0
PubchemFP480,0.0
PubchemFP482,0.0
PubchemFP483,0.0
PubchemFP484,0.0
PubchemFP485,0.0
PubchemFP486,0.0
PubchemFP487,0.0
PubchemFP488,0.0
PubchemFP489,0.0
PubchemFP490,0.0
PubchemFP491,0.0
PubchemFP492,0.0
PubchemFP396,0.0
PubchemFP493,0.0
PubchemFP495,0.0
PubchemFP496,0.0
PubchemFP497,0.0
PubchemFP498,0.0
PubchemFP499,0.0
PubchemFP500,0.0
PubchemFP501,0.0
PubchemFP502,0.0
PubchemFP503,0.0
PubchemFP504,0.0
PubchemFP505,0.0
PubchemFP506,0.0
PubchemFP507,0.0
PubchemFP494,0.0
PubchemFP395,0.0
PubchemFP394,0.0
PubchemFP393,0.0
PubchemFP185,0.0
PubchemFP186,0.0
PubchemFP187,0.0
PubchemFP188,0.0
PubchemFP189,0.0
PubchemFP190,0.0
PubchemFP191,0.0
PubchemFP192,0.0
PubchemFP193,0.0
PubchemFP199,0.0
PubchemFP200,0.0
PubchemFP206,0.0
PubchemFP207,0.0
PubchemFP255,0.0
PubchemFP256,0.0
PubchemFP257,0.0
PubchemFP258,0.0
PubchemFP259,0.0
PubchemFP260,0.0
PubchemFP261,0.0
PubchemFP285,0.0
PubchemFP286,0.0
PubchemFP287,0.0
PubchemFP293,0.0
PubchemFP294,0.0
PubchemFP296,0.0
PubchemFP297,0.0
PubchemFP184,0.0
PubchemFP299,0.0
PubchemFP183,0.0
PubchemFP181,0.0
PubchemFP23,0.0
PubchemFP24,0.0
PubchemFP33,0.0
PubchemFP34,0.0
PubchemFP37,0.0
PubchemFP38,0.0
PubchemFP43,0.0
PubchemFP44,0.0
PubchemFP66,0.0
PubchemFP143,0.0
PubchemFP144,0.0
PubchemFP145,0.0
PubchemFP146,0.0
PubchemFP147,0.0
PubchemFP148,0.0
PubchemFP149,0.0
PubchemFP150,0.0
PubchemFP152,0.0
PubchemFP153,0.0
PubchemFP155,0.0
PubchemFP156,0.0
PubchemFP157,0.0
PubchemFP159,0.0
PubchemFP160,0.0
PubchemFP178,0.0
PubchemFP179,0.0
PubchemFP180,0.0
PubchemFP182,0.0
PubchemFP543,0.0
PubchemFP300,0.0
PubchemFP305,0.0
PubchemFP365,0.0
PubchemFP366,0.0
PubchemFP367,0.0
PubchemFP368,0.0
PubchemFP370,0.0
PubchemFP371,0.0
PubchemFP372,0.0
PubchemFP373,0.0
PubchemFP374,0.0
PubchemFP375,0.0
PubchemFP376,0.0
PubchemFP377,0.0
PubchemFP378,0.0
PubchemFP379,0.0
PubchemFP380,0.0
PubchemFP381,0.0
PubchemFP382,0.0
PubchemFP383,0.0
PubchemFP384,0.0
PubchemFP385,0.0
PubchemFP386,0.0
PubchemFP387,0.0
PubchemFP388,0.0
PubchemFP389,0.0
PubchemFP390,0.0
PubchemFP391,0.0
PubchemFP392,0.0
PubchemFP364,0.0
PubchemFP301,0.0
PubchemFP363,0.0
PubchemFP361,0.0
PubchemFP308,0.0
PubchemFP327,0.0
PubchemFP328,0.0
PubchemFP330,0.0
PubchemFP333,0.0
PubchemFP334,0.0
PubchemFP335,0.0
PubchemFP336,0.0
PubchemFP337,0.0
PubchemFP338,0.0
PubchemFP339,0.0
PubchemFP340,0.0
PubchemFP341,0.0
PubchemFP342,0.0
PubchemFP343,0.0
PubchemFP345,0.0
PubchemFP346,0.0
PubchemFP347,0.0
PubchemFP349,0.0
PubchemFP351,0.0
PubchemFP352,0.0
PubchemFP353,0.0
PubchemFP355,0.0
PubchemFP356,0.0
PubchemFP357,0.0
PubchemFP358,0.0
PubchemFP359,0.0
PubchemFP362,0.0
PubchemFP544,0.0
PubchemFP545,0.0
PubchemFP546,0.0
PubchemFP708,0.0
PubchemFP709,0.0
PubchemFP710,0.0
PubchemFP711,0.0
PubchemFP712,0.0
PubchemFP713,0.0
PubchemFP714,0.0
PubchemFP715,0.0
PubchemFP716,0.0
PubchemFP717,0.0
PubchemFP719,0.0
PubchemFP721,0.0
PubchemFP722,0.0
PubchemFP723,0.0
PubchemFP725,0.0
PubchemFP728,0.0
PubchemFP729,0.0
PubchemFP730,0.0
PubchemFP734,0.0
PubchemFP735,0.0
PubchemFP736,0.0
PubchemFP737,0.0
PubchemFP738,0.0
PubchemFP739,0.0
PubchemFP740,0.0
PubchemFP742,0.0
PubchemFP743,0.0
PubchemFP707,0.0
PubchemFP746,0.0
PubchemFP706,0.0
PubchemFP704,0.0
PubchemFP676,0.0
PubchemFP677,0.0
PubchemFP678,0.0
PubchemFP679,0.0
PubchemFP680,0.0
PubchemFP681,0.0
PubchemFP682,0.0
PubchemFP683,0.0
PubchemFP684,0.0
PubchemFP685,0.0
PubchemFP686,0.0
PubchemFP687,0.0
PubchemFP688,0.0
PubchemFP689,0.0
PubchemFP690,0.0
PubchemFP691,0.0
PubchemFP692,0.0
PubchemFP693,0.0
PubchemFP694,0.0
PubchemFP695,0.0
PubchemFP696,0.0
PubchemFP698,0.0
PubchemFP699,0.0
PubchemFP700,0.0
PubchemFP701,0.0
PubchemFP702,0.0
PubchemFP703,0.0
PubchemFP705,0.0
PubchemFP675,0.0
PubchemFP749,0.0
PubchemFP751,0.0
PubchemFP801,0.0
PubchemFP802,0.0
PubchemFP803,0.0
PubchemFP805,0.0
PubchemFP806,0.0
PubchemFP809,0.0
PubchemFP812,0.0
PubchemFP813,0.0
PubchemFP814,0.0
PubchemFP817,0.0
PubchemFP818,0.0
PubchemFP819,0.0
PubchemFP820,0.0
PubchemFP821,0.0
PubchemFP822,0.0
PubchemFP823,0.0
PubchemFP824,0.0
PubchemFP826,0.0
PubchemFP828,0.0
PubchemFP830,0.0
PubchemFP831,0.0
PubchemFP833,0.0
PubchemFP834,0.0
PubchemFP839,0.0
PubchemFP841,0.0
PubchemFP843,0.0
PubchemFP860,0.0
PubchemFP800,0.0
PubchemFP750,0.0
PubchemFP799,0.0
PubchemFP797,0.0
PubchemFP754,0.0
PubchemFP755,0.0
PubchemFP756,0.0
PubchemFP757,0.0
PubchemFP758,0.0
PubchemFP759,0.0
PubchemFP760,0.0
PubchemFP761,0.0
PubchemFP763,0.0
PubchemFP765,0.0
PubchemFP767,0.0
PubchemFP768,0.0
PubchemFP770,0.0
PubchemFP771,0.0
PubchemFP776,0.0
PubchemFP777,0.0
PubchemFP778,0.0
PubchemFP779,0.0
PubchemFP780,0.0
PubchemFP782,0.0
PubchemFP784,0.0
PubchemFP785,0.0
PubchemFP786,0.0
PubchemFP788,0.0
PubchemFP791,0.0
PubchemFP792,0.0
PubchemFP793,0.0
PubchemFP798,0.0
PubchemFP674,0.0
PubchemFP673,0.0
PubchemFP672,0.0
PubchemFP580,0.0
PubchemFP581,0.0
PubchemFP582,0.0
PubchemFP584,0.0
PubchemFP585,0.0
PubchemFP586,0.0
PubchemFP587,0.0
PubchemFP588,0.0
PubchemFP589,0.0
PubchemFP590,0.0
PubchemFP591,0.0
PubchemFP592,0.0
PubchemFP593,0.0
PubchemFP594,0.0
PubchemFP595,0.0
PubchemFP596,0.0
PubchemFP597,0.0
PubchemFP598,0.0
PubchemFP599,0.0
PubchemFP600,0.0
PubchemFP601,0.0
PubchemFP602,0.0
PubchemFP603,0.0
PubchemFP604,0.0
PubchemFP605,0.0
PubchemFP606,0.0
PubchemFP607,0.0
PubchemFP579,0.0
PubchemFP608,0.0
PubchemFP578,0.0
PubchemFP576,0.0
PubchemFP547,0.0
PubchemFP548,0.0
PubchemFP549,0.0
PubchemFP550,0.0
PubchemFP551,0.0
PubchemFP552,0.0
PubchemFP553,0.0
PubchemFP554,0.0
PubchemFP555,0.0
PubchemFP556,0.0
PubchemFP557,0.0
PubchemFP558,0.0
PubchemFP559,0.0
PubchemFP560,0.0
PubchemFP561,0.0
PubchemFP563,0.0
PubchemFP564,0.0
PubchemFP565,0.0
PubchemFP566,0.0
PubchemFP567,0.0
PubchemFP568,0.0
PubchemFP570,0.0
PubchemFP571,0.0
PubchemFP572,0.0
PubchemFP573,0.0
PubchemFP574,0.0
PubchemFP575,0.0
PubchemFP577,0.0
PubchemFP609,0.0
PubchemFP610,0.0
PubchemFP611,0.0
PubchemFP645,0.0
PubchemFP646,0.0
PubchemFP647,0.0
PubchemFP648,0.0
PubchemFP649,0.0
PubchemFP650,0.0
PubchemFP651,0.0
PubchemFP652,0.0
PubchemFP653,0.0
PubchemFP654,0.0
PubchemFP655,0.0
PubchemFP656,0.0
PubchemFP657,0.0
PubchemFP658,0.0
PubchemFP659,0.0
PubchemFP660,0.0
PubchemFP661,0.0
PubchemFP662,0.0
PubchemFP663,0.0
PubchemFP664,0.0
PubchemFP665,0.0
PubchemFP666,0.0
PubchemFP667,0.0
PubchemFP668,0.0
PubchemFP669,0.0
PubchemFP670,0.0
PubchemFP671,0.0
PubchemFP644,0.0
PubchemFP643,0.0
PubchemFP642,0.0
PubchemFP641,0.0
PubchemFP612,0.0
PubchemFP613,0.0
PubchemFP614,0.0
PubchemFP615,0.0
PubchemFP616,0.0
PubchemFP617,0.0
PubchemFP618,0.0
PubchemFP619,0.0
PubchemFP620,0.0
PubchemFP621,0.0
PubchemFP622,0.0
PubchemFP623,0.0
PubchemFP624,0.0
PubchemFP22,0.0
PubchemFP625,0.0
PubchemFP628,0.0
PubchemFP629,0.0
PubchemFP630,0.0
PubchemFP631,0.0
PubchemFP632,0.0
PubchemFP633,0.0
PubchemFP634,0.0
PubchemFP635,0.0
PubchemFP636,0.0
PubchemFP637,0.0
PubchemFP638,0.0
PubchemFP639,0.0
PubchemFP640,0.0
PubchemFP626,0.0
PubchemFP864,0.0
PubchemFP21,0.0
PubchemFP19,0.0
SwHBd,0.0
SHBa,0.0
SwHBa,0.0
SHBint3,0.0
SHBint4,0.0
SHBint5,0.0
SHBint6,0.0
SHBint7,0.0
SHBint8,0.0
SHBint9,0.0
SHBint10,0.0
SHsOH,0.0
SHBd,0.0
SHsNH2,0.0
SHaaNH,0.0
SHtCH,0.0
SHdCH2,0.0
SHdsCH,0.0
SHaaCH,0.0
SHCHnX,0.0
SHCsats,0.0
SHCsatu,0.0
SHAvin,0.0
SHother,0.0
SsCH3,0.0
SdCH2,0.0
SHssNH,0.0
nsBr,0.0
nssSe,0.0
nsCl,0.0
ntCH,0.0
ndsCH,0.0
naaCH,0.0
nsssCH,0.0
ntsC,0.0
ndssC,0.0
naasC,0.0
naaaC,0.0
nssssC,0.0
nsNH2,0.0
nssNH,0.0
naaNH,0.0
ntN,0.0
ndsN,0.0
naaN,0.0
nsssN,0.0
naasN,0.0
nsOH,0.0
ndO,0.0
nssO,0.0
naaO,0.0
nsOm,0.0
nsF,0.0
ndS,0.0
nssS,0.0
naaS,0.0
nddssS,0.0
SssCH2,0.0
StCH,0.0
SdsCH,0.0
SaaCH,0.0
minHBint4,0.0
minHBint5,0.0
minHBint6,0.0
minHBint7,0.0
minHBint8,0.0
minHBint9,0.0
minHBint10,0.0
minHsOH,0.0
minHsNH2,0.0
minHssNH,0.0
minHaaNH,0.0
minHtCH,0.0
minHdCH2,0.0
minHdsCH,0.0
minHaaCH,0.0
minHCHnX,0.0
minHCsats,0.0
minHCsatu,0.0
minHAvin,0.0
minHother,0.0
minsCH3,0.0
mindCH2,0.0
minssCH2,0.0
mintCH,0.0
mindsCH,0.0
PubchemFP20,0.0
minsssCH,0.0
minHBint3,0.0
nssCH2,0.0
minHBint2,0.0
minwHBd,0.0
SsssCH,0.0
StsC,0.0
SdssC,0.0
SaasC,0.0
SaaaC,0.0
SssssC,0.0
SsNH2,0.0
SssNH,0.0
SaaNH,0.0
StN,0.0
SdsN,0.0
SaaN,0.0
SaasN,0.0
SsOH,0.0
SdO,0.0
SssO,0.0
SaaO,0.0
SsOm,0.0
SsF,0.0
SdS,0.0
SssS,0.0
SaaS,0.0
SddssS,0.0
SsCl,0.0
SssSe,0.0
SsBr,0.0
minHBd,0.0
minwHBa,0.0
mintsC,0.0
ndCH2,0.0
nHother,0.0
nBase,0.0
BCUTw.1l,0.0
BCUTw.1h,0.0
BCUTc.1l,0.0
BCUTc.1h,0.0
BCUTp.1l,0.0
BCUTp.1h,0.0
nBonds,0.0
nBonds2,0.0
nBondsS,0.0
nBondsS3,0.0
nBondsD,0.0
ATSp5,0.0
nBondsD2,0.0
nBondsM,0.0
bpol,0.0
C1SP1,0.0
C2SP1,0.0
C1SP2,0.0
C2SP2,0.0
C3SP2,0.0
C1SP3,0.0
C2SP3,0.0
C3SP3,0.0
C4SP3,0.0
SCH.5,0.0
nBondsT,0.0
ATSp4,0.0
ATSp3,0.0
ATSp2,0.0
ALogP,0.0
ALogp2,0.0
AMR,0.0
apol,0.0
naAromAtom,0.0
nAromBond,0.0
nAtom,0.0
nHeavyAtom,0.0
nH,0.0
nC,0.0
nO,0.0
nS,0.0
nF,0.0
nCl,0.0
nBr,0.0
nX,0.0
ATSc1,0.0
ATSc2,0.0
ATSc3,0.0
ATSc4,0.0
ATSc5,0.0
ATSm1,0.0
ATSm2,0.0
ATSm3,0.0
ATSm4,0.0
ATSm5,0.0
ATSp1,0.0
SCH.6,0.0
SCH.7,0.0
VCH.5,0.0
VCH.6,0.0
CrippenMR,0.0
ECCEN,0.0
nHBd,0.0
nwHBd,0.0
nHBa,0.0
nwHBa,0.0
nHBint2,0.0
nHBint3,0.0
nHBint4,0.0
nHBint5,0.0
nHBint6,0.0
nHBint7,0.0
nHBint8,0.0
nHBint9,0.0
nHBint10,0.0
nHsOH,0.0
nHsNH2,0.0
nHssNH,0.0
nHaaNH,0.0
nHtCH,0.0
nHdCH2,0.0
nHdsCH,0.0
nHaaCH,0.0
nHCHnX,0.0
nHCsats,0.0
nHCsatu,0.0
nHAvin,0.0
CrippenLogP,0.0
nsCH3,0.0
VP.7,0.0
VP.5,0.0
VCH.7,0.0
SC.4,0.0
SC.5,0.0
SC.6,0.0
VC.3,0.0
VC.4,0.0
VC.5,0.0
VC.6,0.0
SPC.4,0.0
SPC.5,0.0
SPC.6,0.0
VPC.4,0.0
VPC.5,0.0
VPC.6,0.0
SP.0,0.0
SP.1,0.0
SP.2,0.0
SP.3,0.0
SP.4,0.0
SP.5,0.0
SP.6,0.0
SP.7,0.0
VP.0,0.0
VP.1,0.0
VP.2,0.0
VP.3,0.0
VP.4,0.0
VP.6,0.0
mindssC,0.0
minaaCH,0.0
minaaaC,0.0
MDEC.22,0.0
MDEC.23,0.0
MDEC.24,0.0
MDEC.33,0.0
MDEC.34,0.0
MDEC.44,0.0
MDEO.11,0.0
MDEO.12,0.0
MDEO.22,0.0
MDEN.11,0.0
MDEN.12,0.0
MDEN.13,0.0
MDEC.14,0.0
MDEN.22,0.0
MDEN.33,0.0
MLFER_A,0.0
MLFER_BH,0.0
MLFER_BO,0.0
MLFER_S,0.0
MLFER_E,0.0
MLFER_L,0.0
PetitjeanNumber,0.0
nRing,0.0
n5Ring,0.0
n6Ring,0.0
nFRing,0.0
MDEN.23,0.0
MDEC.13,0.0
MDEC.12,0.0
MDEC.11,0.0
ETA_Eta_R,0.0
minaasC,0.0
ETA_EtaP_F,0.0
ETA_Eta_L,0.0
ETA_EtaP_L,0.0
ETA_Eta_R_L,0.0
ETA_Eta_F_L,0.0
ETA_EtaP_F_L,0.0
ETA_Eta_B,0.0
ETA_EtaP_B,0.0
ETA_Eta_B_RC,0.0
ETA_EtaP_B_RC,0.0
fragC,0.0
nHBAcc,0.0
nHBAcc2,0.0
nHBAcc3,0.0
nHBAcc_Lipinski,0.0
nHBDon,0.0
nHBDon_Lipinski,0.0
HybRatio,0.0
Kier1,0.0
Kier2,0.0
Kier3,0.0
nAtomLC,0.0
nAtomLAC,0.0
MLogP,0.0
McGowan_Volume,0.0
nF6Ring,0.0
nF8Ring,0.0
nF9Ring,0.0
nF10Ring,0.0
nRotBt,0.0
RotBtFrac,0.0
LipinskiFailures,0.0
topoRadius,0.0
topoDiameter,0.0
topoShape,0.0
globalTopoChargeIndex,0.0
TopoPSA,0.0
VABC,0.0
VAdjMat,0.0
MW,0.0
WTPT.1,0.0
WTPT.4,0.0
WTPT.5,0.0
WPATH,0.0
WPOL,0.0
XLogP,0.0
Zagreb,0.0
PubchemFP1,0.0
PubchemFP2,0.0
PubchemFP3,0.0
PubchemFP12,0.0
PubchemFP13,0.0
PubchemFP14,0.0
PubchemFP15,0.0
PubchemFP16,0.0
PubchemFP18,0.0
RotBFrac,0.0
ETA_EtaP,0.0
nRotB,0.0
nT12HeteroRing,0.0
nF11Ring,0.0
nF12Ring,0.0
nFG12Ring,0.0
nTRing,0.0
nT5Ring,0.0
nT6Ring,0.0
nT8Ring,0.0
nT9Ring,0.0
nT10Ring,0.0
nT11Ring,0.0
nT12Ring,0.0
nTG12Ring,0.0
nHeteroRing,0.0
n5HeteroRing,0.0
n6HeteroRing,0.0
nF8HeteroRing,0.0
nF9HeteroRing,0.0
nF10HeteroRing,0.0
nF11HeteroRing,0.0
nF12HeteroRing,0.0
nFG12HeteroRing,0.0
nT5HeteroRing,0.0
nT6HeteroRing,0.0
nT8HeteroRing,0.0
nT9HeteroRing,0.0
nT10HeteroRing,0.0
nT11HeteroRing,0.0
nTG12HeteroRing,0.0
ETA_Eta,0.0
ETA_Eta_F,0.0
ETA_Beta_ns_d,0.0
maxHBint7,0.0
maxHBint8,0.0
maxHBint9,0.0
maxHBint10,0.0
maxHsOH,0.0
maxHsNH2,0.0
maxHssNH,0.0
maxHaaNH,0.0
maxHtCH,0.0
maxHdCH2,0.0
maxHdsCH,0.0
maxHaaCH,0.0
maxHCHnX,0.0
maxHCsats,0.0
maxHCsatu,0.0
maxHAvin,0.0
maxHother,0.0
maxsCH3,0.0
maxdCH2,0.0
maxssCH2,0.0
maxtCH,0.0
maxdsCH,0.0
maxaaCH,0.0
maxsssCH,0.0
maxtsC,0.0
ETA_BetaP_ns_d,0.0
maxaasC,0.0
maxHBint6,0.0
maxaaaC,0.0
maxHBint5,0.0
maxHBint3,0.0
minssssC,0.0
minsNH2,0.0
minssNH,0.0
minaaNH,0.0
mintN,0.0
mindsN,0.0
minaaN,0.0
minsssN,0.0
minaasN,0.0
minsOH,0.0
mindO,0.0
minssO,0.0
minaaO,0.0
minsOm,0.0
minsF,0.0
mindS,0.0
minssS,0.0
minaaS,0.0
minddssS,0.0
minsCl,0.0
minssSe,0.0
minsBr,0.0
maxHBd,0.0
maxwHBd,0.0
maxHBa,0.0
maxwHBa,0.0
maxHBint2,0.0
maxHBint4,0.0
maxssssC,0.0
maxdssC,0.0
maxssNH,0.0
ETA_Alpha,0.0
maxsNH2,0.0
ETA_dAlpha_A,0.0
ETA_dAlpha_B,0.0
ETA_Epsilon_1,0.0
ETA_Epsilon_2,0.0
ETA_Epsilon_3,0.0
ETA_Epsilon_4,0.0
ETA_Epsilon_5,0.0
ETA_dEpsilon_A,0.0
ETA_dEpsilon_B,0.0
ETA_dEpsilon_C,0.0
DELS2,0.0
ETA_dEpsilon_D,0.0
ETA_dPsi_A,0.0
ETA_dPsi_B,0.0
ETA_Shape_P,0.0
ETA_Shape_Y,0.0
ETA_Shape_X,0.0
ETA_Beta,0.0
ETA_BetaP,0.0
ETA_BetaP_s,0.0
ETA_Beta_ns,0.0
ETA_BetaP_ns,0.0
ETA_dBeta,0.0
ETA_dBetaP,0.0
ETA_Psi_1,0.0
MAXDP2,0.0
ETA_AlphaP,0.0
PubchemFP873,0.0
maxaaO,0.0
maxsOm,0.0
maxdO,0.0
maxsOH,0.0
maxsF,0.0
maxaasN,0.0
MAXDN2,0.0
maxdS,0.0
maxsCl,0.0
maxsBr,0.0
sumI,0.0
hmax,0.0
hmin,0.0
gmin,0.0
LipoaffinityIndex,0.0
maxsssN,0.0
maxaaN,0.0
maxdsN,0.0
maxtN,0.0
MAXDP,0.0
DELS,0.0
maxaaNH,0.0
gmax,0.0
maxssO,0.0
nN,0.0014576514716787559
PubchemFP569,0.0015551027287407204
minHBa,0.008377155078939746
ETA_Beta_s,0.010807017864492808
FMF,0.012487450432446279
SsssN,0.013637484373791553
PubchemFP697,0.016560507183162054
nAtomP,0.020133491992856377
SHBint2,0.03500510422875164
nBondsS2,0.04349059555265694
WTPT.2,0.06131922369259287
WTPT.3,0.06196481517745313
MAXDN,0.088157046242159
