target,prediction
1,0.3350694298537163
0,0.36132190109676027
0,0.3452085815168979
1,0.250487541309043
1,0.7193078851079945
1,0.6118959137444056
0,0.19614175429998326
0,0.3292554352364252
0,0.15479270538158665
0,0.32628165135972936
0,0.08086108144996271
1,0.07181372549019609
0,0.2875869415744444
0,0.07181372549019609
0,0.07181372549019609
1,0.6605052410467156
1,0.5774278609402264
1,0.9084260991912446
0,0.330400624274041
0,0.4454848470792336
1,0.665466658939168
0,0.6194595404064557
0,0.7751287252050162
1,0.1322408522612697
1,0.21507045364713703
1,0.7440276056996649
0,0.45575697557748435
0,0.3317766805377766
0,0.507714958258896
0,0.27719352946838866
1,0.6445635213927897
0,0.12333071707749307
0,0.21150075414781297
1,0.8339672247323703
0,0.20685147237138268
1,0.8914292373761527
0,0.5436161773396422
0,0.4556228278293795
1,0.6292929525822558
0,0.22640190131093216
0,0.09630892499807306
0,0.31196677124228844
1,0.7055568838259502
1,0.6118959137444056
0,0.3275751832136874
1,0.8203151437876528
0,0.460963139822819
1,0.05287577289619031
0,0.25630014669208395
0,0.07181372549019609
1,0.5766488769728461
1,0.45962590998459
1,0.779658762300977
1,0.6594301876953332
0,0.5708254216310494
0,0.20965259281956194
1,0.18781164707426257
1,0.4571350762527233
1,0.7054821706223943
0,0.18892602495543673
1,0.32314814814814813
0,0.6194595404064557
1,0.8339672247323703
1,0.8914292373761527
0,0.6335678123193603
0,0.07181372549019609
1,0.1753704167456123
0,0.29530975541359683
1,0.5065535194121995
0,0.21081402257872847
0,0.46092295504060204
1,0.566869680342984
1,0.288309320104338
0,0.05007465244801105
0,0.08012792012976037
0,0.6868210305203999
0,0.3367946133859308
0,0.8914292373761527
0,0.2399918689828032
0,0.18047646995648858
0,0.6044427290822156
0,0.7038121198355707
1,0.7355848054287268
1,0.6510954294884895
1,0.5084767623168231
1,0.5915458992477316
0,0.5488893983228103
1,0.4933660794941283
0,0.07181372549019609
1,0.7076863645940511
1,0.6917824484128523
1,0.29230974351152794
1,0.8285909784170252
1,0.7493660925579299
0,0.3802395127571473
1,0.8441791792778828
1,0.6204920956343103
0,0.7582510075256079
0,0.07225935828877006
0,0.6323133348742928
0,0.28965965093249557
0,0.36258071648142026
0,0.4189221799728309
1,0.4881905939306319
1,0.4205702894238758
1,0.8914292373761527
0,0.34972323738585137
0,0.6807820240099206
1,0.6194595404064557
1,0.45257153060462774
0,0.1322408522612697
1,0.7415565230979977
0,0.25313193795483463
