{
    "name": "Ensemble",
    "ml_task": "binary_classification",
    "optimize_metric": "logloss",
    "selected_models": [
        {
            "model": "4_Default_NeuralNetwork",
            "repeat": 1.0
        },
        {
            "model": "5_Default_RandomForest",
            "repeat": 2.0
        }
    ],
    "predictions_fname": "Ensemble\\predictions_ensemble.csv",
    "metric_name": "logloss",
    "final_loss": 0.4104703943122055,
    "train_time": 0.26624178886413574,
    "is_stacked": false,
    "threshold": 0.5864722379288851
}