{
    "new_features": [
        {
            "feature1": "nBondsM",
            "feature2": "C1SP3",
            "operation": "diff",
            "score": 0.5128737835
        },
        {
            "feature1": "ATSc1",
            "feature2": "SHBint3",
            "operation": "ratio",
            "score": 0.5198603854
        },
        {
            "feature1": "SssS",
            "feature2": "SHCsatu",
            "operation": "sum",
            "score": 0.5239106733
        },
        {
            "feature1": "nFG12HeteroRing",
            "feature2": "PubchemFP684",
            "operation": "diff",
            "score": 0.5345069496
        },
        {
            "feature1": "nTG12HeteroRing",
            "feature2": "PubchemFP684",
            "operation": "diff",
            "score": 0.5345069496
        },
        {
            "feature1": "nHCsatu",
            "feature2": "WTPT.2",
            "operation": "ratio",
            "score": 0.535286111
        },
        {
            "feature1": "nFG12HeteroRing",
            "feature2": "PubchemFP535",
            "operation": "diff",
            "score": 0.5367618264
        },
        {
            "feature1": "nTG12HeteroRing",
            "feature2": "PubchemFP535",
            "operation": "diff",
            "score": 0.5367618264
        },
        {
            "feature1": "nHCsatu",
            "feature2": "nAtomLC",
            "operation": "ratio",
            "score": 0.5371555456
        },
        {
            "feature1": "nFG12HeteroRing",
            "feature2": "PubchemFP579",
            "operation": "diff",
            "score": 0.5403921217
        },
        {
            "feature1": "nF10Ring",
            "feature2": "nsCH3",
            "operation": "ratio",
            "score": 0.5420098785
        },
        {
            "feature1": "PubchemFP257",
            "feature2": "ntN",
            "operation": "sum",
            "score": 0.5453441428
        },
        {
            "feature1": "PubchemFP257",
            "feature2": "PubchemFP419",
            "operation": "diff",
            "score": 0.5453441428
        },
        {
            "feature1": "PubchemFP257",
            "feature2": "mintN",
            "operation": "sum",
            "score": 0.5453441428
        },
        {
            "feature1": "mintN",
            "feature2": "PubchemFP257",
            "operation": "diff",
            "score": 0.5453441428
        },
        {
            "feature1": "ntN",
            "feature2": "PubchemFP257",
            "operation": "diff",
            "score": 0.5453441428
        },
        {
            "feature1": "PubchemFP257",
            "feature2": "nT12Ring",
            "operation": "sum",
            "score": 0.545639262
        },
        {
            "feature1": "PubchemFP734",
            "feature2": "SssCH2",
            "operation": "sum",
            "score": 0.5504404081
        },
        {
            "feature1": "PubchemFP436",
            "feature2": "PubchemFP257",
            "operation": "sum",
            "score": 0.5524274585
        },
        {
            "feature1": "PubchemFP728",
            "feature2": "PubchemFP257",
            "operation": "sum",
            "score": 0.5524274585
        },
        {
            "feature1": "PubchemFP419",
            "feature2": "PubchemFP257",
            "operation": "sum",
            "score": 0.5563325899
        },
        {
            "feature1": "PubchemFP257",
            "feature2": "PubchemFP739",
            "operation": "diff",
            "score": 0.5569482718
        },
        {
            "feature1": "PubchemFP449",
            "feature2": "ETA_dBeta",
            "operation": "ratio",
            "score": 0.5582113169
        },
        {
            "feature1": "nFG12HeteroRing",
            "feature2": "PubchemFP420",
            "operation": "diff",
            "score": 0.5584268981
        },
        {
            "feature1": "nTG12HeteroRing",
            "feature2": "PubchemFP443",
            "operation": "diff",
            "score": 0.5592099057
        },
        {
            "feature1": "nFG12HeteroRing",
            "feature2": "PubchemFP443",
            "operation": "diff",
            "score": 0.5592099057
        },
        {
            "feature1": "PubchemFP685",
            "feature2": "MDEC.33",
            "operation": "ratio",
            "score": 0.5596334432
        },
        {
            "feature1": "maxssO",
            "feature2": "maxHCsatu",
            "operation": "ratio",
            "score": 0.560633749
        },
        {
            "feature1": "maxHCsatu",
            "feature2": "maxssO",
            "operation": "ratio",
            "score": 0.560633749
        },
        {
            "feature1": "PubchemFP257",
            "feature2": "minsBr",
            "operation": "sum",
            "score": 0.560633749
        },
        {
            "feature1": "minsBr",
            "feature2": "PubchemFP257",
            "operation": "diff",
            "score": 0.560633749
        },
        {
            "feature1": "MDEN.12",
            "feature2": "PubchemFP257",
            "operation": "diff",
            "score": 0.560633749
        },
        {
            "feature1": "PubchemFP257",
            "feature2": "MDEN.12",
            "operation": "sum",
            "score": 0.560633749
        },
        {
            "feature1": "PubchemFP622",
            "feature2": "nF12Ring",
            "operation": "sum",
            "score": 0.5609213742
        },
        {
            "feature1": "PubchemFP622",
            "feature2": "nT12HeteroRing",
            "operation": "sum",
            "score": 0.5609213742
        },
        {
            "feature1": "nF12Ring",
            "feature2": "PubchemFP622",
            "operation": "diff",
            "score": 0.5609213742
        },
        {
            "feature1": "nT12HeteroRing",
            "feature2": "PubchemFP622",
            "operation": "diff",
            "score": 0.5609213742
        },
        {
            "feature1": "PubchemFP542",
            "feature2": "nssCH2",
            "operation": "sum",
            "score": 0.5616220589
        },
        {
            "feature1": "nFG12HeteroRing",
            "feature2": "naaNH",
            "operation": "sum",
            "score": 0.5644913351
        },
        {
            "feature1": "nTG12HeteroRing",
            "feature2": "naaNH",
            "operation": "sum",
            "score": 0.5644913351
        },
        {
            "feature1": "nFG12HeteroRing",
            "feature2": "nHaaNH",
            "operation": "sum",
            "score": 0.5644913351
        },
        {
            "feature1": "nTG12HeteroRing",
            "feature2": "nHaaNH",
            "operation": "sum",
            "score": 0.5644913351
        },
        {
            "feature1": "maxdssC",
            "feature2": "SHBint3",
            "operation": "multiply",
            "score": 0.5657716177
        },
        {
            "feature1": "nssCH2",
            "feature2": "PubchemFP514",
            "operation": "diff",
            "score": 0.5661171807
        },
        {
            "feature1": "PubchemFP187",
            "feature2": "PubchemFP257",
            "operation": "diff",
            "score": 0.5664574948
        },
        {
            "feature1": "PubchemFP666",
            "feature2": "nssCH2",
            "operation": "sum",
            "score": 0.5668958552
        },
        {
            "feature1": "maxHBint2",
            "feature2": "nHCsatu",
            "operation": "multiply",
            "score": 0.5670580416
        },
        {
            "feature1": "PubchemFP625",
            "feature2": "minHCsatu",
            "operation": "sum",
            "score": 0.5671712136
        },
        {
            "feature1": "PubchemFP364",
            "feature2": "PubchemFP257",
            "operation": "sum",
            "score": 0.567321037
        },
        {
            "feature1": "PubchemFP257",
            "feature2": "PubchemFP287",
            "operation": "diff",
            "score": 0.567321037
        },
        {
            "feature1": "PubchemFP257",
            "feature2": "PubchemFP364",
            "operation": "diff",
            "score": 0.567321037
        },
        {
            "feature1": "naAromAtom",
            "feature2": "PubchemFP193",
            "operation": "diff",
            "score": 0.5705387781
        },
        {
            "feature1": "ETA_BetaP_ns",
            "feature2": "maxHBd",
            "operation": "ratio",
            "score": 0.5707247185
        },
        {
            "feature1": "PubchemFP257",
            "feature2": "PubchemFP830",
            "operation": "diff",
            "score": 0.5708270899
        },
        {
            "feature1": "PubchemFP830",
            "feature2": "PubchemFP257",
            "operation": "sum",
            "score": 0.5708270899
        },
        {
            "feature1": "PubchemFP257",
            "feature2": "PubchemFP676",
            "operation": "diff",
            "score": 0.5708270899
        },
        {
            "feature1": "PubchemFP257",
            "feature2": "PubchemFP715",
            "operation": "diff",
            "score": 0.5708270899
        },
        {
            "feature1": "PubchemFP257",
            "feature2": "PubchemFP650",
            "operation": "diff",
            "score": 0.5708270899
        },
        {
            "feature1": "PubchemFP676",
            "feature2": "PubchemFP257",
            "operation": "sum",
            "score": 0.5708270899
        },
        {
            "feature1": "PubchemFP715",
            "feature2": "PubchemFP257",
            "operation": "sum",
            "score": 0.5708270899
        },
        {
            "feature1": "PubchemFP492",
            "feature2": "PubchemFP257",
            "operation": "sum",
            "score": 0.5708270899
        },
        {
            "feature1": "PubchemFP257",
            "feature2": "PubchemFP492",
            "operation": "diff",
            "score": 0.5708270899
        },
        {
            "feature1": "PubchemFP515",
            "feature2": "PubchemFP257",
            "operation": "sum",
            "score": 0.5716750771
        },
        {
            "feature1": "PubchemFP665",
            "feature2": "ETA_dBeta",
            "operation": "ratio",
            "score": 0.5718688647
        },
        {
            "feature1": "PubchemFP440",
            "feature2": "PubchemFP392",
            "operation": "sum",
            "score": 0.5722144148
        },
        {
            "feature1": "PubchemFP682",
            "feature2": "minHCsatu",
            "operation": "sum",
            "score": 0.5723975431
        },
        {
            "feature1": "PubchemFP702",
            "feature2": "PubchemFP257",
            "operation": "sum",
            "score": 0.5725591933
        },
        {
            "feature1": "nHCsatu",
            "feature2": "PubchemFP257",
            "operation": "diff",
            "score": 0.5736896926
        },
        {
            "feature1": "minHCsatu",
            "feature2": "naasN",
            "operation": "sum",
            "score": 0.5738180536
        },
        {
            "feature1": "PubchemFP604",
            "feature2": "nssCH2",
            "operation": "sum",
            "score": 0.5744079967
        },
        {
            "feature1": "minaaS",
            "feature2": "PubchemFP257",
            "operation": "diff",
            "score": 0.5750681338
        },
        {
            "feature1": "PubchemFP257",
            "feature2": "minaaS",
            "operation": "sum",
            "score": 0.5750681338
        },
        {
            "feature1": "PubchemFP758",
            "feature2": "nT5Ring",
            "operation": "sum",
            "score": 0.575247184
        },
        {
            "feature1": "PubchemFP821",
            "feature2": "n5Ring",
            "operation": "sum",
            "score": 0.575247184
        },
        {
            "feature1": "PubchemFP683",
            "feature2": "ETA_dBeta",
            "operation": "ratio",
            "score": 0.5755863161
        },
        {
            "feature1": "PubchemFP261",
            "feature2": "nTG12HeteroRing",
            "operation": "sum",
            "score": 0.5758661488
        },
        {
            "feature1": "PubchemFP30",
            "feature2": "PubchemFP257",
            "operation": "diff",
            "score": 0.5759667178
        },
        {
            "feature1": "PubchemFP257",
            "feature2": "PubchemFP860",
            "operation": "diff",
            "score": 0.5759667178
        },
        {
            "feature1": "PubchemFP257",
            "feature2": "mindsssP",
            "operation": "sum",
            "score": 0.5759667178
        },
        {
            "feature1": "PubchemFP25",
            "feature2": "PubchemFP257",
            "operation": "diff",
            "score": 0.5759667178
        },
        {
            "feature1": "PubchemFP257",
            "feature2": "PubchemFP817",
            "operation": "diff",
            "score": 0.5759667178
        },
        {
            "feature1": "PubchemFP257",
            "feature2": "PubchemFP410",
            "operation": "diff",
            "score": 0.5759667178
        },
        {
            "feature1": "PubchemFP257",
            "feature2": "PubchemFP314",
            "operation": "diff",
            "score": 0.5759667178
        },
        {
            "feature1": "PubchemFP13",
            "feature2": "PubchemFP257",
            "operation": "diff",
            "score": 0.5759667178
        },
        {
            "feature1": "PubchemFP257",
            "feature2": "PubchemFP260",
            "operation": "diff",
            "score": 0.5759667178
        },
        {
            "feature1": "PubchemFP257",
            "feature2": "PubchemFP801",
            "operation": "diff",
            "score": 0.5759667178
        },
        {
            "feature1": "PubchemFP44",
            "feature2": "PubchemFP257",
            "operation": "diff",
            "score": 0.5759667178
        },
        {
            "feature1": "PubchemFP257",
            "feature2": "PubchemFP738",
            "operation": "diff",
            "score": 0.5759667178
        },
        {
            "feature1": "PubchemFP257",
            "feature2": "PubchemFP828",
            "operation": "diff",
            "score": 0.5759667178
        },
        {
            "feature1": "MDEC.14",
            "feature2": "PubchemFP257",
            "operation": "diff",
            "score": 0.5759667178
        },
        {
            "feature1": "PubchemFP257",
            "feature2": "PubchemFP334",
            "operation": "diff",
            "score": 0.5759667178
        },
        {
            "feature1": "PubchemFP257",
            "feature2": "PubchemFP754",
            "operation": "diff",
            "score": 0.5759667178
        },
        {
            "feature1": "ndsssP",
            "feature2": "PubchemFP257",
            "operation": "diff",
            "score": 0.5759667178
        },
        {
            "feature1": "PubchemFP257",
            "feature2": "PubchemFP425",
            "operation": "diff",
            "score": 0.5759667178
        },
        {
            "feature1": "PubchemFP257",
            "feature2": "PubchemFP839",
            "operation": "diff",
            "score": 0.5759667178
        },
        {
            "feature1": "PubchemFP181",
            "feature2": "SHBint2",
            "operation": "ratio",
            "score": 0.5759667178
        },
        {
            "feature1": "nTG12HeteroRing",
            "feature2": "C3SP2",
            "operation": "multiply",
            "score": 0.5760541081
        },
        {
            "feature1": "nFG12HeteroRing",
            "feature2": "C3SP2",
            "operation": "multiply",
            "score": 0.5760541081
        },
        {
            "feature1": "PubchemFP633",
            "feature2": "ETA_dBeta",
            "operation": "ratio",
            "score": 0.5760994834
        },
        {
            "feature1": "nHBint3",
            "feature2": "SHBint6",
            "operation": "ratio",
            "score": 0.5783094841
        }
    ],
    "new_columns": [
        "nBondsM_diff_C1SP3",
        "ATSc1_ratio_SHBint3",
        "SssS_sum_SHCsatu",
        "nFG12HeteroRing_diff_PubchemFP684",
        "nTG12HeteroRing_diff_PubchemFP684",
        "nHCsatu_ratio_WTPT.2",
        "nFG12HeteroRing_diff_PubchemFP535",
        "nTG12HeteroRing_diff_PubchemFP535",
        "nHCsatu_ratio_nAtomLC",
        "nFG12HeteroRing_diff_PubchemFP579",
        "nF10Ring_ratio_nsCH3",
        "PubchemFP257_sum_ntN",
        "PubchemFP257_diff_PubchemFP419",
        "PubchemFP257_sum_mintN",
        "mintN_diff_PubchemFP257",
        "ntN_diff_PubchemFP257",
        "PubchemFP257_sum_nT12Ring",
        "PubchemFP734_sum_SssCH2",
        "PubchemFP436_sum_PubchemFP257",
        "PubchemFP728_sum_PubchemFP257",
        "PubchemFP419_sum_PubchemFP257",
        "PubchemFP257_diff_PubchemFP739",
        "PubchemFP449_ratio_ETA_dBeta",
        "nFG12HeteroRing_diff_PubchemFP420",
        "nTG12HeteroRing_diff_PubchemFP443",
        "nFG12HeteroRing_diff_PubchemFP443",
        "PubchemFP685_ratio_MDEC.33",
        "maxssO_ratio_maxHCsatu",
        "maxHCsatu_ratio_maxssO",
        "PubchemFP257_sum_minsBr",
        "minsBr_diff_PubchemFP257",
        "MDEN.12_diff_PubchemFP257",
        "PubchemFP257_sum_MDEN.12",
        "PubchemFP622_sum_nF12Ring",
        "PubchemFP622_sum_nT12HeteroRing",
        "nF12Ring_diff_PubchemFP622",
        "nT12HeteroRing_diff_PubchemFP622",
        "PubchemFP542_sum_nssCH2",
        "nFG12HeteroRing_sum_naaNH",
        "nTG12HeteroRing_sum_naaNH",
        "nFG12HeteroRing_sum_nHaaNH",
        "nTG12HeteroRing_sum_nHaaNH",
        "maxdssC_multiply_SHBint3",
        "nssCH2_diff_PubchemFP514",
        "PubchemFP187_diff_PubchemFP257",
        "PubchemFP666_sum_nssCH2",
        "maxHBint2_multiply_nHCsatu",
        "PubchemFP625_sum_minHCsatu",
        "PubchemFP364_sum_PubchemFP257",
        "PubchemFP257_diff_PubchemFP287",
        "PubchemFP257_diff_PubchemFP364",
        "naAromAtom_diff_PubchemFP193",
        "ETA_BetaP_ns_ratio_maxHBd",
        "PubchemFP257_diff_PubchemFP830",
        "PubchemFP830_sum_PubchemFP257",
        "PubchemFP257_diff_PubchemFP676",
        "PubchemFP257_diff_PubchemFP715",
        "PubchemFP257_diff_PubchemFP650",
        "PubchemFP676_sum_PubchemFP257",
        "PubchemFP715_sum_PubchemFP257",
        "PubchemFP492_sum_PubchemFP257",
        "PubchemFP257_diff_PubchemFP492",
        "PubchemFP515_sum_PubchemFP257",
        "PubchemFP665_ratio_ETA_dBeta",
        "PubchemFP440_sum_PubchemFP392",
        "PubchemFP682_sum_minHCsatu",
        "PubchemFP702_sum_PubchemFP257",
        "nHCsatu_diff_PubchemFP257",
        "minHCsatu_sum_naasN",
        "PubchemFP604_sum_nssCH2",
        "minaaS_diff_PubchemFP257",
        "PubchemFP257_sum_minaaS",
        "PubchemFP758_sum_nT5Ring",
        "PubchemFP821_sum_n5Ring",
        "PubchemFP683_ratio_ETA_dBeta",
        "PubchemFP261_sum_nTG12HeteroRing",
        "PubchemFP30_diff_PubchemFP257",
        "PubchemFP257_diff_PubchemFP860",
        "PubchemFP257_sum_mindsssP",
        "PubchemFP25_diff_PubchemFP257",
        "PubchemFP257_diff_PubchemFP817",
        "PubchemFP257_diff_PubchemFP410",
        "PubchemFP257_diff_PubchemFP314",
        "PubchemFP13_diff_PubchemFP257",
        "PubchemFP257_diff_PubchemFP260",
        "PubchemFP257_diff_PubchemFP801",
        "PubchemFP44_diff_PubchemFP257",
        "PubchemFP257_diff_PubchemFP738",
        "PubchemFP257_diff_PubchemFP828",
        "MDEC.14_diff_PubchemFP257",
        "PubchemFP257_diff_PubchemFP334",
        "PubchemFP257_diff_PubchemFP754",
        "ndsssP_diff_PubchemFP257",
        "PubchemFP257_diff_PubchemFP425",
        "PubchemFP257_diff_PubchemFP839",
        "PubchemFP181_ratio_SHBint2",
        "nTG12HeteroRing_multiply_C3SP2",
        "nFG12HeteroRing_multiply_C3SP2",
        "PubchemFP633_ratio_ETA_dBeta",
        "nHBint3_ratio_SHBint6"
    ],
    "ml_task": "binary_classification"
}