name,model_type,metric_type,metric_value,train_time
1_Baseline,Baseline,logloss,0.6932374749684914,4.19
2_DecisionTree,Decision Tree,logloss,1.5039061852268996,14.71
3_Default_Xgboost,Xgboost,logloss,0.49256578730098133,8.56
4_Default_NeuralNetwork,Neural Network,logloss,1.1041243111611696,7.63
5_Default_RandomForest,Random Forest,logloss,0.4257182442466694,11.11
Ensemble,Ensemble,logloss,0.4104703943122055,0.27
